serial_to_parallel.vcd
$date
	Fri May 01 14:08:15 2026
$end
$version
	Icarus Verilog
$end
$timescale
	1ps
$end
$scope module serial_to_parallel_tb $end
$var wire 8 ! parallel_out [7:0] $end
$var wire 1 " data_valid $end
$var parameter 32 # CLK_PERIOD $end
$var parameter 32 $ DATA_WIDTH $end
$var reg 8 % captured [7:0] $end
$var reg 1 & clk $end
$var reg 1 ' rst_n $end
$var reg 1 ( serial_in $end
$var reg 1 ) shift_en $end
$var integer 32 * fail_count [31:0] $end
$var integer 32 + i [31:0] $end
$var integer 32 , pass_count [31:0] $end
$scope module dut $end
$var wire 1 & clk $end
$var wire 1 ' rst_n $end
$var wire 1 ( serial_in $end
$var wire 1 ) shift_en $end
$var parameter 32 - DATA_WIDTH $end
$var reg 3 . bit_count [2:0] $end
$var reg 1 " data_valid $end
$var reg 8 / parallel_out [7:0] $end
$var reg 8 0 shift_reg [7:0] $end
$upscope $end
$scope task check_result $end
$var reg 8 1 expected [7:0] $end
$var reg 8 2 received [7:0] $end
$var integer 32 3 test_num [31:0] $end
$upscope $end
$scope task send_serial $end
$var reg 8 4 data [7:0] $end
$upscope $end
$upscope $end
$enddefinitions $end
$comment Show the parameter values. $end
$dumpall
b1000 -
b1000 $
b1010 #
$end
#0
$dumpvars
bx 4
bx 3
bx 2
bx 1
b0 0
b0 /
b0 .
b0 ,
bx +
b0 *
0)
0(
0'
0&
bx %
0"
b0 !
$end
#5000
1&
#10000
0&
#15000
1&
#20000
0&
#25000
1&
#26000
b10100101 4
1'
#27000
1(
b111 +
1)
#30000
0&
#35000
b1 .
b1 0
1&
#36000
0(
b110 +
#40000
0&
#45000
b10 .
b10 0
1&
#46000
1(
b101 +
#50000
0&
#55000
b11 .
b101 0
1&
#56000
0(
b100 +
#60000
0&
#65000
b100 .
b1010 0
1&
#66000
b11 +
#70000
0&
#75000
b101 .
b10100 0
1&
#76000
1(
b10 +
#80000
0&
#85000
b110 .
b101001 0
1&
#86000
0(
b1 +
#90000
0&
#95000
b111 .
b1010010 0
1&
#96000
1(
b0 +
#100000
0&
#105000
1"
b10100101 !
b10100101 /
b0 .
b10100101 0
1&
#106000
0(
0)
b11111111111111111111111111111111 +
#110000
0&
#115000
0"
1&
#116000
b1 ,
b1 3
b10100101 2
b10100101 1
b10100101 %
#120000
0&
#125000
1&
#130000
0&
#135000
b11111111 4
1&
#136000
1(
b111 +
1)
#140000
0&
#145000
b1 .
b1001011 0
1&
#146000
b110 +
#150000
0&
#155000
b10 .
b10010111 0
1&
#156000
b101 +
#160000
0&
#165000
b11 .
b101111 0
1&
#166000
b100 +
#170000
0&
#175000
b100 .
b1011111 0
1&
#176000
b11 +
#180000
0&
#185000
b101 .
b10111111 0
1&
#186000
b10 +
#190000
0&
#195000
b110 .
b1111111 0
1&
#196000
b1 +
#200000
0&
#205000
b111 .
b11111111 0
1&
#206000
b0 +
#210000
0&
#215000
1"
b11111111 !
b11111111 /
b0 .
1&
#216000
0(
0)
b11111111111111111111111111111111 +
#220000
0&
#225000
0"
1&
#226000
b10 ,
b10 3
b11111111 2
b11111111 1
b11111111 %
#230000
0&
#235000
1&
#240000
0&
#245000
b111100 4
1&
#246000
b111 +
1)
#250000
0&
#255000
b1 .
b11111110 0
1&
#256000
b110 +
#260000
0&
#265000
b10 .
b11111100 0
1&
#266000
1(
b101 +
#270000
0&
#275000
b11 .
b11111001 0
1&
#276000
b100 +
#280000
0&
#285000
b100 .
b11110011 0
1&
#286000
b11 +
#290000
0&
#295000
b101 .
b11100111 0
1&
#296000
b10 +
#300000
0&
#305000
b110 .
b11001111 0
1&
#306000
0(
b1 +
#310000
0&
#315000
b111 .
b10011110 0
1&
#316000
b0 +
#320000
0&
#325000
1"
b111100 !
b111100 /
b0 .
b111100 0
1&
#326000
0)
b11111111111111111111111111111111 +
#330000
0&
#335000
0"
1&
#336000
b11 ,
b11 3
b111100 2
b111100 1
b111100 %
#340000
0&
#345000
1&
#350000
0&
#355000
b0 4
1&
#356000
b111 +
1)
#360000
0&
#365000
b1 .
b1111000 0
1&
#366000
b110 +
#370000
0&
#375000
b10 .
b11110000 0
1&
#376000
b101 +
#380000
0&
#385000
b11 .
b11100000 0
1&
#386000
b100 +
#390000
0&
#395000
b100 .
b11000000 0
1&
#396000
b11 +
#400000
0&
#405000
b101 .
b10000000 0
1&
#406000
b10 +
#410000
0&
#415000
b110 .
b0 0
1&
#416000
b1 +
#420000
0&
#425000
b111 .
1&
#426000
b0 +
#430000
0&
#435000
1"
b0 !
b0 /
b0 .
1&
#436000
0)
b11111111111111111111111111111111 +
#440000
0&
#445000
0"
1&
#446000
b100 ,
b100 3
b0 2
b0 1
b0 %
#450000
0&
#455000
1&
#460000
0&
#465000
b1101001 4
1&
#466000
b111 +
1)
#470000
0&
#475000
b1 .
1&
#476000
1(
b110 +
#480000
0&
#485000
b10 .
b1 0
1&
#486000
b101 +
#490000
0&
#495000
b11 .
b11 0
1&
#496000
0(
b100 +
#500000
0&
#505000
b100 .
b110 0
1&
#506000
1(
b11 +
#510000
0&
#515000
b101 .
b1101 0
1&
#516000
0(
b10 +
#520000
0&
#525000
b110 .
b11010 0
1&
#526000
b1 +
#530000
0&
#535000
b111 .
b110100 0
1&
#536000
1(
b0 +
#540000
0&
#545000
1"
b1101001 !
b1101001 /
b0 .
b1101001 0
1&
#546000
0(
0)
b11111111111111111111111111111111 +
#550000
0&
#555000
0"
1&
#556000
b101 ,
b101 3
b1101001 2
b1101001 1
b1101001 %
#560000
0&
#565000
1&
#570000
0&
#575000
1&
#576000
1(
1)
#580000
0&
#585000
b1 .
b11010011 0
1&
#590000
0&
#595000
b10 .
b10100111 0
1&
#600000
0&
#605000
b11 .
b1001111 0
1&
#610000
0&
#615000
b100 .
b10011111 0
1&
#616000
b0 .
b0 !
b0 /
b0 0
0'
#620000
0&
#625000
1&
#630000
0&
#635000
1&
#636000
b1010101 4
0)
1'
#637000
b111 +
1)
0(
#640000
0&
#645000
b1 .
1&
#646000
1(
b110 +
#650000
0&
#655000
b10 .
b1 0
1&
#656000
0(
b101 +
#660000
0&
#665000
b11 .
b10 0
1&
#666000
1(
b100 +
#670000
0&
#675000
b100 .
b101 0
1&
#676000
0(
b11 +
#680000
0&
#685000
b101 .
b1010 0
1&
#686000
1(
b10 +
#690000
0&
#695000
b110 .
b10101 0
1&
#696000
0(
b1 +
#700000
0&
#705000
b111 .
b101010 0
1&
#706000
1(
b0 +
#710000
0&
#715000
1"
b1010101 !
b1010101 /
b0 .
b1010101 0
1&
#716000
0(
0)
b11111111111111111111111111111111 +
#720000
0&
#725000
0"
1&
#726000
b110 ,
b110 3
b1010101 2
b1010101 1
b1010101 %
#730000
0&
#735000
1&
#740000
0&
#745000
1&
#746000
1(
#750000
0&
#755000
1&
#760000
0&
#765000
1&
#770000
0&
#775000
1&
#780000
0&
#785000
1&
#790000
0&
#795000
1&
#800000
0&
#805000
1&
#810000
0&
#815000
1&
#820000
0&
#825000
1&
#830000
0&
#835000
1&
#840000
0&
#845000
1&
#850000
0&
#855000
1&
#860000
0&
#865000
1&
#866000
b111 ,
b111 3
